…
``` r
#checking this out
uoe_art %>%
  arrange(year)
```

    ## # A tibble: 2,910 × 4
    ##    title                                     artist              year link      
    ##    <chr>                                     <chr>              <dbl> <chr>     
    ##  1 "Death Mask "                             H. Dempshall           2 https://c…
    ##  2 "Sampler. Mary Ann Park "                 Mary Ann Park       1819 https://c…
    ##  3 "Fine lawn collar "                       Unknown             1820 https://c…
    ##  4 "Dying Gaul "                             Unknown             1822 https://c…
    ##  5 "Crouching Venus "                        Sarti               1834 https://c…
    ##  6 "Castor and Pollux "                      Sarti               1835 https://c…
    ##  7 "Gates of Paradise "                      Clement Pappi       1835 https://c…
    ##  8 "Head of Lorenzo de' Medici "             Aristodemo Costoli  1836 https://c…
    ##  9 "Metope 3, south entablature, Parthenon " <NA>                1837 https://c…
    ## 10 "Metope 9, south entablature, Parthenon " <NA>                1837 https://c…
    ## # … with 2,900 more rows
…
Let’s find out which artist has the most pieces in the UoE collection!
Technically, “Unknown” has the most pieces, but if we set that aside, we
can see that Emma Gillies has the most pieces in the collection, by
quite a large margin. I was not familiar with her beforehand, but
according to Prof. Google, she was a Scottish potter who attended the
Edinburgh College of Art, and whose work has been exhibited at the UoE
several times.

``` r
uoe_art %>%
  count(artist) %>%
  arrange(desc(n))
```

    ## # A tibble: 1,092 × 2
    ##    artist                   n
    ##    <chr>                <int>
    ##  1 Unknown                344
    ##  2 Emma Gillies           173
    ##  3 <NA>                   114
    ##  4 John Bellany            21
    ##  5 Ann F Ward              19
    ##  6 Boris Bućan             17
    ##  7 Zygmunt Bukowski        17
    ##  8 Marjorie Wallace        16
    ##  9 Gordon Bryce            15
    ## 10 Elizabeth Blackadder    13
    ## # … with 1,082 more rows
…
